Model calibration • homeranger
…
# show first elements of the list
head(obs, n = 2)
#> <list_of<
#>   tbl_df<
#>     id: integer
#>     x : integer
#>     y : integer
#>   >
#> >[1]>
#> [[1]]
#> # A tibble: 421 × 3
#>       id     x     y
#>    <int> <int> <int>
#>  1  1196  1001   592
#>  2  1196   999   585
#>  3  1196  1002   583
#>  4  1196  1002   583
#>  5  1196  1001   587
#>  6  1196  1002   587
#>  7  1196  1002   588
#>  8  1196  1003   587
#>  9  1196  1002   587
#> 10  1196  1002   588
#> # ℹ 411 more rows
…
